asgiref==3.5.2
defusedxml==0.7.1
diff-match-patch==20200713
Django==4.0.5
django-cors-headers==3.13.0
django-filter==22.1
django-import-export==3.0.2
django-simple-history==3.2.0
djangorestframework==3.14.0
djangorestframework-simplejwt==5.2.2
et-xmlfile==1.1.0
MarkupPy==1.14
odfpy==1.4.1
openpyxl==3.0.10
Pillow==9.4.0
PyJWT==2.6.0
pytz==2022.7.1
PyYAML==6.0
sqlparse==0.4.2
tablib==3.3.0
tzdata==2022.1
xlrd==2.0.1
xlwt==1.3.0
